fhiRclient • fhiRclient
…
CRUD functions

Read a Patient record

To read a patient record and convert it to json list.

pt <- Patient(list(id = "326b4675-0bc8-4dbd-b406-a5564c282401"))
ct %>% Read(pt) %>% as_json %>% as_json_tbl
#> # A tibble: 88 x 2
#>    name                                    value                               
#>    <chr>                                   <chr>                               
#>  1 id                                      326b4675-0bc8-4dbd-b406-a5564c282401
#>  2 meta.lastUpdated                        2020-11-18T02:05:08.474-05:00       
#>  3 meta.tag.code                           synthea-5-2019                      
#>  4 meta.tag.system                         https://smarthealthit.org/tags      
#>  5 meta.versionId                          16                                  
#>  6 extension.extension.url                 ombCategory                         
#>  7 extension.extension.valueCoding.code    2106-3                              
#>  8 extension.extension.valueCoding.display White                               
#>  9 extension.extension.valueCoding.system  urn:oid:2.16.840.1.113883.6.238     
#> 10 extension.extension.url                 text                                
#> # … with 78 more rows
…
Bundle search

The Search function can be used to search for resource bundles with parameters. The page option can be specified to look up results from first page or all pages.

res <- Search(ct, "observation", "Observation",
              list(code = "http://loinc.org|2339-0"), page = "all")
res
#> # A tibble: 88,640 x 2
#>    name                       value                                             
#>    <chr>                      <chr>                                             
#>  1 id                         9b41529c-8e1d-4c2e-adf7-840bf47c5216              
#>  2 meta.lastUpdated           2020-11-25T21:55:54.111-05:00                     
#>  3 entry.fullUrl              https://r4.smarthealthit.org/Observation/a8dbb860…
#>  4 entry.resource.id          a8dbb860-4190-46da-af7b-11bf7c7f9ffd              
#>  5 entry.resource.meta.lastU… 2019-06-06T02:51:24.277-04:00                     
#>  6 entry.resource.meta.tag.c… synthea-5-2019                                    
#>  7 entry.resource.meta.tag.s… https://smarthealthit.org/tags                    
#>  8 entry.resource.meta.versi… 3                                                 
#>  9 entry.resource.category.c… laboratory                                        
#> 10 entry.resource.category.c… laboratory                                        
#> # … with 88,630 more rows

The filterBundle function can be used to extract specific elements. For example, here we extract all the unique reference patients.

res %>% filterBundle('subject') %>% unique
#> # A tibble: 269 x 2
#>    name                             value                                       
#>    <chr>                            <chr>                                       
#>  1 entry.resource.subject.reference Patient/948e608d-e408-4788-8cf2-8157c49c2940
#>  2 entry.resource.subject.reference Patient/d48ac962-78c6-46cf-ba33-a24771bfa0e4
#>  3 entry.resource.subject.reference Patient/4d58465c-4703-4c36-ab8f-2f935dc4bee7
#>  4 entry.resource.subject.reference Patient/0ac13d55-d566-450a-aea0-f6a71f1ad73b
#>  5 entry.resource.subject.reference Patient/ecaea95c-46de-4ac9-a58d-4847d1a3e574
#>  6 entry.resource.subject.reference Patient/63c5db14-f5b0-4405-9ff6-0b88601ddb22
#>  7 entry.resource.subject.reference Patient/b218cee9-019d-47a4-b161-e97c0fd6f736
#>  8 entry.resource.subject.reference Patient/32cd9fa4-7a32-4de1-bce2-548e37151540
#>  9 entry.resource.subject.reference Patient/2a86d65b-06c7-4100-9d43-948921b49605
#> 10 entry.resource.subject.reference Patient/6bb3d38f-ae2e-40cf-a31e-baaea0b8bcc1
#> # … with 259 more rows

We can group the results with indexes and convert it to wide table with patients in different columns.

gres <- res %>% filterBundle("entry.resource") %>% group_index("entry.resource.id")
gres
#> # A tibble: 74,405 x 3
#> # Groups:   entry.resource.id [3,383]
#>    name                  value                         entry.resource.id        
#>    <chr>                 <chr>                         <chr>                    
#>  1 entry.resource.id     a8dbb860-4190-46da-af7b-11bf… a8dbb860-4190-46da-af7b-…
#>  2 entry.resource.meta.… 2019-06-06T02:51:24.277-04:00 a8dbb860-4190-46da-af7b-…
#>  3 entry.resource.meta.… synthea-5-2019                a8dbb860-4190-46da-af7b-…
#>  4 entry.resource.meta.… https://smarthealthit.org/ta… a8dbb860-4190-46da-af7b-…
#>  5 entry.resource.meta.… 3                             a8dbb860-4190-46da-af7b-…
#>  6 entry.resource.categ… laboratory                    a8dbb860-4190-46da-af7b-…
#>  7 entry.resource.categ… laboratory                    a8dbb860-4190-46da-af7b-…
#>  8 entry.resource.categ… http://terminology.hl7.org/C… a8dbb860-4190-46da-af7b-…
#>  9 entry.resource.code.… 2339-0                        a8dbb860-4190-46da-af7b-…
#> 10 entry.resource.code.… Glucose                       a8dbb860-4190-46da-af7b-…
#> # … with 74,395 more rows
gres[1:44,] %>% tidyr::pivot_wider(names_from = entry.resource.id)
#> # A tibble: 22 x 3
#>    name             `a8dbb860-4190-46da-af7b-11bf… `0c115a64-8e55-411c-bcc3-afe…
#>    <chr>            <chr>                          <chr>                        
#>  1 entry.resource.… a8dbb860-4190-46da-af7b-11bf7… 0c115a64-8e55-411c-bcc3-afee…
#>  2 entry.resource.… 2019-06-06T02:51:24.277-04:00  2019-06-06T02:51:27.094-04:00
#>  3 entry.resource.… synthea-5-2019                 synthea-5-2019               
#>  4 entry.resource.… https://smarthealthit.org/tags https://smarthealthit.org/ta…
#>  5 entry.resource.… 3                              3                            
#>  6 entry.resource.… laboratory                     laboratory                   
#>  7 entry.resource.… laboratory                     laboratory                   
#>  8 entry.resource.… http://terminology.hl7.org/Co… http://terminology.hl7.org/C…
#>  9 entry.resource.… 2339-0                         2339-0                       
#> 10 entry.resource.… Glucose                        Glucose                      
#> # … with 12 more rows
…
